
12/5/2018 6:00:52 PM Could not find stored procedure 'SP_LoginMemberFE'.
-----------------------------------

12/5/2018 6:01:09 PM Could not find stored procedure 'SP_GetListCountry_CMS'.
-----------------------------------

12/5/2018 6:01:13 PM Could not find stored procedure 'SP_GetListCountry_CMS'.
-----------------------------------

12/5/2018 6:01:19 PM Could not find stored procedure 'SP_GetListCountry_CMS'.
-----------------------------------

12/5/2018 6:01:19 PM Could not find stored procedure 'SP_GetListCountry_CMS'.
-----------------------------------

12/5/2018 6:01:26 PM Could not find stored procedure 'SP_ListTicketConfig'.
-----------------------------------

12/5/2018 6:01:26 PM Could not find stored procedure 'SP_GetFreeTicketDailyActive'.
-----------------------------------

12/5/2018 6:01:26 PM Could not find stored procedure 'SP_GetMemberDetailByEmailFE'.
-----------------------------------

12/5/2018 6:01:26 PM Could not find stored procedure 'SP_GetNewestDrawID'.
-----------------------------------

12/5/2018 6:01:26 PM Could not find stored procedure 'SP_GetNewestDrawID'.
-----------------------------------

12/5/2018 6:01:26 PM Could not find stored procedure 'SP_GetListCountry_CMS'.
-----------------------------------

12/5/2018 6:01:26 PM Could not find stored procedure 'SP_ListTicketConfig'.
-----------------------------------

12/5/2018 6:01:26 PM Could not find stored procedure 'SP_GetFreeTicketDailyActive'.
-----------------------------------

12/5/2018 6:01:26 PM Could not find stored procedure 'SP_GetMemberDetailByEmailFE'.
-----------------------------------

12/5/2018 6:01:26 PM Could not find stored procedure 'SP_GetNewestDrawID'.
-----------------------------------

12/5/2018 6:01:27 PM Could not find stored procedure 'SP_GetNewestDrawID'.
-----------------------------------

12/5/2018 6:01:27 PM Could not find stored procedure 'SP_GetListCountry_CMS'.
-----------------------------------

12/5/2018 6:01:33 PM Could not find stored procedure 'SP_ListTicketConfig'.
-----------------------------------

12/5/2018 6:01:33 PM Could not find stored procedure 'SP_GetFreeTicketDailyActive'.
-----------------------------------

12/5/2018 6:01:33 PM Could not find stored procedure 'SP_GetMemberDetailByEmailFE'.
-----------------------------------

12/5/2018 6:01:33 PM Could not find stored procedure 'SP_GetNewestDrawID'.
-----------------------------------

12/5/2018 6:01:33 PM Could not find stored procedure 'SP_GetNewestDrawID'.
-----------------------------------

12/5/2018 6:01:33 PM Could not find stored procedure 'SP_GetListCountry_CMS'.
-----------------------------------

12/5/2018 6:01:33 PM Could not find stored procedure 'SP_ListTicketConfig'.
-----------------------------------

12/5/2018 6:01:33 PM Could not find stored procedure 'SP_GetFreeTicketDailyActive'.
-----------------------------------

12/5/2018 6:01:33 PM Could not find stored procedure 'SP_GetMemberDetailByEmailFE'.
-----------------------------------

12/5/2018 6:01:33 PM Could not find stored procedure 'SP_GetNewestDrawID'.
-----------------------------------

12/5/2018 6:01:33 PM Could not find stored procedure 'SP_GetNewestDrawID'.
-----------------------------------

12/5/2018 6:01:33 PM Could not find stored procedure 'SP_GetListCountry_CMS'.
-----------------------------------

12/5/2018 6:01:36 PM Could not find stored procedure 'SP_GetListAwardMagaball'.
-----------------------------------

12/5/2018 6:01:36 PM Could not find stored procedure 'SP_ListTicketConfig'.
-----------------------------------

12/5/2018 6:01:36 PM Could not find stored procedure 'SP_GetFreeTicketDailyActive'.
-----------------------------------

12/5/2018 6:01:36 PM Could not find stored procedure 'SP_GetMemberDetailByEmailFE'.
-----------------------------------

12/5/2018 6:01:36 PM Could not find stored procedure 'SP_GetNewestDrawID'.
-----------------------------------

12/5/2018 6:01:36 PM Could not find stored procedure 'SP_GetNewestDrawID'.
-----------------------------------

12/5/2018 6:01:36 PM Could not find stored procedure 'SP_GetListCountry_CMS'.
-----------------------------------

12/5/2018 6:01:37 PM Could not find stored procedure 'SP_ListTicketConfig'.
-----------------------------------

12/5/2018 6:01:37 PM Could not find stored procedure 'SP_GetFreeTicketDailyActive'.
-----------------------------------

12/5/2018 6:01:37 PM Could not find stored procedure 'SP_GetMemberDetailByEmailFE'.
-----------------------------------

12/5/2018 6:01:37 PM Could not find stored procedure 'SP_GetNewestDrawID'.
-----------------------------------

12/5/2018 6:01:37 PM Could not find stored procedure 'SP_GetNewestDrawID'.
-----------------------------------

12/5/2018 6:01:37 PM Could not find stored procedure 'SP_GetListCountry_CMS'.
-----------------------------------

12/5/2018 6:01:40 PM Could not find stored procedure 'SP_GetNewestDrawID'.
-----------------------------------

12/5/2018 6:01:40 PM Could not find stored procedure 'SP_ListTicketConfig'.
-----------------------------------

12/5/2018 6:01:40 PM Could not find stored procedure 'SP_GetFreeTicketDailyActive'.
-----------------------------------

12/5/2018 6:01:40 PM Could not find stored procedure 'SP_GetMemberDetailByEmailFE'.
-----------------------------------

12/5/2018 6:01:41 PM Could not find stored procedure 'SP_GetNewestDrawID'.
-----------------------------------

12/5/2018 6:01:41 PM Could not find stored procedure 'SP_GetNewestDrawID'.
-----------------------------------

12/5/2018 6:01:41 PM Could not find stored procedure 'SP_GetListCountry_CMS'.
-----------------------------------

12/5/2018 6:01:41 PM Could not find stored procedure 'SP_ListTicketConfig'.
-----------------------------------

12/5/2018 6:01:41 PM Could not find stored procedure 'SP_GetFreeTicketDailyActive'.
-----------------------------------

12/5/2018 6:01:41 PM Could not find stored procedure 'SP_GetMemberDetailByEmailFE'.
-----------------------------------

12/5/2018 6:01:41 PM Could not find stored procedure 'SP_GetNewestDrawID'.
-----------------------------------

12/5/2018 6:01:41 PM Could not find stored procedure 'SP_GetNewestDrawID'.
-----------------------------------

12/5/2018 6:01:41 PM Could not find stored procedure 'SP_GetListCountry_CMS'.
-----------------------------------

12/10/2018 3:51:56 PM Index was outside the bounds of the array.
-----------------------------------

12/10/2018 3:51:56 PM Index was outside the bounds of the array.
-----------------------------------

12/18/2018 5:10:52 PM Algorithm -> DecryptionObjectRSA: Could not find a part of the path 'D:\JackPost_Full\bbc.cscjackpot\MT\BBH.LotteFE.WCF\private.xml'.
-----------------------------------

12/18/2018 5:10:53 PM Could not find a part of the path 'D:\JackPost_Full\bbc.cscjackpot\MT\BBH.LotteFE.WCF\private.xml'.
-----------------------------------

12/18/2018 5:16:05 PM Algorithm -> DecryptionObjectRSA: Could not find a part of the path 'D:\JackPost_Full\bbc.cscjackpot\MT\BBH.LotteFE.WCF\private.xml'.
-----------------------------------

12/18/2018 5:16:40 PM Could not find a part of the path 'D:\JackPost_Full\bbc.cscjackpot\MT\BBH.LotteFE.WCF\private.xml'.
-----------------------------------

12/19/2018 9:10:30 AM Algorithm -> DecryptionObjectRSA: Could not find a part of the path 'D:\JackPost_Full\bbc.cscjackpot\MT\BBH.LotteFE.WCF\private.xml'.
-----------------------------------

12/19/2018 9:10:30 AM Could not find a part of the path 'D:\JackPost_Full\bbc.cscjackpot\MT\BBH.LotteFE.WCF\private.xml'.
-----------------------------------

12/19/2018 9:11:28 AM Algorithm -> DecryptionObjectRSA: Could not find a part of the path 'D:\JackPost_Full\bbc.cscjackpot\MT\BBH.LotteFE.WCF\private.xml'.
-----------------------------------

12/19/2018 9:11:29 AM Could not find a part of the path 'D:\JackPost_Full\bbc.cscjackpot\MT\BBH.LotteFE.WCF\private.xml'.
-----------------------------------

12/19/2018 9:12:23 AM Algorithm -> DecryptionObjectRSA: Could not find a part of the path 'D:\JackPost_Full\bbc.cscjackpot\MT\BBH.LotteFE.WCF\private.xml'.
-----------------------------------

12/19/2018 9:12:23 AM Could not find a part of the path 'D:\JackPost_Full\bbc.cscjackpot\MT\BBH.LotteFE.WCF\private.xml'.
-----------------------------------

12/19/2018 9:12:42 AM Algorithm -> DecryptionObjectRSA: Could not find a part of the path 'D:\JackPost_Full\bbc.cscjackpot\MT\BBH.LotteFE.WCF\private.xml'.
-----------------------------------

12/19/2018 9:12:42 AM Could not find a part of the path 'D:\JackPost_Full\bbc.cscjackpot\MT\BBH.LotteFE.WCF\private.xml'.
-----------------------------------

12/19/2018 9:13:58 AM Algorithm -> DecryptionObjectRSA: Could not find a part of the path 'D:\JackPost_Full\bbc.cscjackpot\MT\BBH.LotteFE.WCF\private.xml'.
-----------------------------------

12/19/2018 9:13:58 AM Could not find a part of the path 'D:\JackPost_Full\bbc.cscjackpot\MT\BBH.LotteFE.WCF\private.xml'.
-----------------------------------

12/19/2018 9:25:37 AM Algorithm -> DecryptionObjectRSA: Could not find a part of the path 'D:\JackPost_Full\bbc.cscjackpot\MT\BBH.LotteFE.WCF\private.xml'.
-----------------------------------

12/19/2018 9:25:37 AM Could not find a part of the path 'D:\JackPost_Full\bbc.cscjackpot\MT\BBH.LotteFE.WCF\private.xml'.
-----------------------------------

12/19/2018 9:25:40 AM Algorithm -> DecryptionObjectRSA: Could not find a part of the path 'D:\JackPost_Full\bbc.cscjackpot\MT\BBH.LotteFE.WCF\private.xml'.
-----------------------------------

12/19/2018 9:25:40 AM Could not find a part of the path 'D:\JackPost_Full\bbc.cscjackpot\MT\BBH.LotteFE.WCF\private.xml'.
-----------------------------------

12/19/2018 9:26:08 AM Algorithm -> DecryptionObjectRSA: Could not find a part of the path 'D:\JackPost_Full\bbc.cscjackpot\MT\BBH.LotteFE.WCF\private.xml'.
-----------------------------------

12/19/2018 9:26:08 AM Could not find a part of the path 'D:\JackPost_Full\bbc.cscjackpot\MT\BBH.LotteFE.WCF\private.xml'.
-----------------------------------

12/19/2018 9:27:52 AM Algorithm -> DecryptionObjectRSA: Could not find a part of the path 'D:\JackPost_Full\bbc.cscjackpot\MT\BBH.LotteFE.WCF\private.xml'.
-----------------------------------

12/19/2018 9:27:53 AM Could not find a part of the path 'D:\JackPost_Full\bbc.cscjackpot\MT\BBH.LotteFE.WCF\private.xml'.
-----------------------------------

12/19/2018 9:27:56 AM Algorithm -> DecryptionObjectRSA: Could not find a part of the path 'D:\JackPost_Full\bbc.cscjackpot\MT\BBH.LotteFE.WCF\private.xml'.
-----------------------------------

12/19/2018 9:27:56 AM Could not find a part of the path 'D:\JackPost_Full\bbc.cscjackpot\MT\BBH.LotteFE.WCF\private.xml'.
-----------------------------------

12/19/2018 9:31:51 AM Algorithm -> DecryptionObjectRSA: Could not find a part of the path 'D:\JackPost_Full\bbc.cscjackpot\MT\BBH.LotteFE.WCF\private.xml'.
-----------------------------------

12/19/2018 9:31:51 AM Could not find a part of the path 'D:\JackPost_Full\bbc.cscjackpot\MT\BBH.LotteFE.WCF\private.xml'.
-----------------------------------

12/19/2018 9:31:56 AM Algorithm -> DecryptionObjectRSA: Could not find a part of the path 'D:\JackPost_Full\bbc.cscjackpot\MT\BBH.LotteFE.WCF\private.xml'.
-----------------------------------

12/19/2018 9:31:56 AM Could not find a part of the path 'D:\JackPost_Full\bbc.cscjackpot\MT\BBH.LotteFE.WCF\private.xml'.
-----------------------------------

12/19/2018 4:04:07 PM Algorithm -> DecryptionObjectRSA: Could not find a part of the path 'D:\JackPost_Full\bbc.cscjackpot\MT\BBH.LotteFE.WCF\private.xml'.
-----------------------------------

12/19/2018 4:04:07 PM Could not find a part of the path 'D:\JackPost_Full\bbc.cscjackpot\MT\BBH.LotteFE.WCF\private.xml'.
-----------------------------------

12/19/2018 4:04:09 PM Algorithm -> DecryptionObjectRSA: Could not find a part of the path 'D:\JackPost_Full\bbc.cscjackpot\MT\BBH.LotteFE.WCF\private.xml'.
-----------------------------------

12/19/2018 4:04:09 PM Could not find a part of the path 'D:\JackPost_Full\bbc.cscjackpot\MT\BBH.LotteFE.WCF\private.xml'.
-----------------------------------

12/24/2018 4:17:27 PM Procedure or function 'SP_UpdateInformationMember_FE' expects parameter '@Phonecode', which was not supplied.
-----------------------------------

12/24/2018 4:21:00 PM Procedure or function 'SP_UpdateInformationMember_FE' expects parameter '@Phonecode', which was not supplied.
-----------------------------------

2/16/2019 10:03:43 AM Algorithm -> DecryptionObjectRSA: Could not find a part of the path 'D:\JackPost_Full\bbc.cscjackpot\MT\BBH.LotteFE.WCF\private.xml'.
-----------------------------------

2/16/2019 10:03:43 AM Could not find a part of the path 'D:\JackPost_Full\bbc.cscjackpot\MT\BBH.LotteFE.WCF\private.xml'.
-----------------------------------

2/16/2019 10:03:45 AM Algorithm -> DecryptionObjectRSA: Could not find a part of the path 'D:\JackPost_Full\bbc.cscjackpot\MT\BBH.LotteFE.WCF\private.xml'.
-----------------------------------

2/16/2019 10:03:45 AM Could not find a part of the path 'D:\JackPost_Full\bbc.cscjackpot\MT\BBH.LotteFE.WCF\private.xml'.
-----------------------------------

2/16/2019 10:13:59 AM Algorithm -> DecryptionObjectRSA: Could not find a part of the path 'D:\JackPost_Full\bbc.cscjackpot\MT\BBH.LotteFE.WCF\private.xml'.
-----------------------------------

2/16/2019 10:13:59 AM Could not find a part of the path 'D:\JackPost_Full\bbc.cscjackpot\MT\BBH.LotteFE.WCF\private.xml'.
-----------------------------------

2/16/2019 10:15:07 AM Algorithm -> DecryptionObjectRSA: Could not find a part of the path 'D:\JackPost_Full\bbc.cscjackpot\MT\BBH.LotteFE.WCF\private.xml'.
-----------------------------------

2/16/2019 10:15:07 AM Could not find a part of the path 'D:\JackPost_Full\bbc.cscjackpot\MT\BBH.LotteFE.WCF\private.xml'.
-----------------------------------

2/16/2019 10:16:22 AM Algorithm -> DecryptionObjectRSA: Could not find a part of the path 'D:\JackPost_Full\bbc.cscjackpot\MT\BBH.LotteFE.WCF\private.xml'.
-----------------------------------

2/16/2019 10:16:40 AM Could not find a part of the path 'D:\JackPost_Full\bbc.cscjackpot\MT\BBH.LotteFE.WCF\private.xml'.
-----------------------------------

2/16/2019 10:20:28 AM A transport-level error has occurred when receiving results from the server. (provider: TCP Provider, error: 0 - The specified network name is no longer available.)
-----------------------------------

2/16/2019 11:29:04 AM Input string was not in a correct format.
-----------------------------------
